#      x          Cp  
     1.00000    0.16639
     0.99217    0.14199
     0.98108    0.10851
     0.96808    0.07330
     0.95386    0.03907
     0.93906    0.00726
     0.92401   -0.02186
     0.90885   -0.04856
     0.89365   -0.07322
     0.87842   -0.09620
     0.86318   -0.11779
     0.84793   -0.13823
     0.83266   -0.15771
     0.81739   -0.17640
     0.80211   -0.19441
     0.78683   -0.21186
     0.77153   -0.22884
     0.75624   -0.24542
     0.74093   -0.26167
     0.72562   -0.27764
     0.71031   -0.29340
     0.69499   -0.30899
     0.67968   -0.32444
     0.66436   -0.33980
     0.64903   -0.35510
     0.63371   -0.37038
     0.61839   -0.38567
     0.60307   -0.40101
     0.58775   -0.41641
     0.57243   -0.43192
     0.55712   -0.44756
     0.54181   -0.46337
     0.52651   -0.47939
     0.51121   -0.49566
     0.49592   -0.51223
     0.48064   -0.52916
     0.46536   -0.54652
     0.45010   -0.56443
     0.43486   -0.58306
     0.41963   -0.60263
     0.40445   -0.62423
     0.38935   -0.64832
     0.37432   -0.66880
     0.35933   -0.68833
     0.34436   -0.70700
     0.32942   -0.72501
     0.31451   -0.74235
     0.29963   -0.75891
     0.28478   -0.77439
     0.26997   -0.78834
     0.25521   -0.80094
     0.24050   -0.81694
     0.22584   -0.85896
     0.21125   -0.88601
     0.19674   -0.89766
     0.18230   -0.91354
     0.16797   -0.93121
     0.15376   -0.95008
     0.13969   -0.97013
     0.12580   -0.99154
     0.11213   -1.01464
     0.09875   -1.03990
     0.08577   -1.06787
     0.07335   -1.09915
     0.06171   -1.13421
     0.05111   -1.17307
     0.04181   -1.21505
     0.03391   -1.25880
     0.02735   -1.30263
     0.02195   -1.34481
     0.01751   -1.38345
     0.01383   -1.41639
     0.01078   -1.44037
     0.00822   -1.45067
     0.00608   -1.44024
     0.00430   -1.39873
     0.00285   -1.31182
     0.00171   -1.16234
     0.00086   -0.93485
     0.00031   -0.62792
     0.00003   -0.26545
     0.00003    0.09880
     0.00030    0.44772
     0.00087    0.73112
     0.00177    0.91209
     0.00300    0.99069
     0.00454    0.99436
     0.00642    0.95229
     0.00865    0.88681
     0.01127    0.81071
     0.01436    0.73246
     0.01800    0.65498
     0.02235    0.58110
     0.02756    0.51117
     0.03388    0.44620
     0.04153    0.38683
     0.05067    0.33417
     0.06129    0.28908
     0.07321    0.25187
     0.08612    0.22202
     0.09973    0.19845
     0.11381    0.17996
     0.12822    0.16546
     0.14286    0.15408
     0.15769    0.14513
     0.17266    0.13810
     0.18773    0.13257
     0.20291    0.12825
     0.21816    0.12487
     0.23348    0.12225
     0.24886    0.12022
     0.26428    0.11864
     0.27976    0.11740
     0.29527    0.11639
     0.31083    0.11552
     0.32641    0.11471
     0.34202    0.11385
     0.35766    0.11284
     0.37332    0.11150
     0.38898    0.10970
     0.40460    0.10623
     0.42018    0.10374
     0.43574    0.10225
     0.45132    0.10132
     0.46690    0.10080
     0.48250    0.10059
     0.49811    0.10060
     0.51374    0.10079
     0.52937    0.10112
     0.54501    0.10156
     0.56067    0.10208
     0.57633    0.10268
     0.59200    0.10332
     0.60768    0.10401
     0.62336    0.10473
     0.63905    0.10547
     0.65475    0.10624
     0.67045    0.10703
     0.68615    0.10785
     0.70186    0.10869
     0.71757    0.10956
     0.73329    0.11047
     0.74900    0.11143
     0.76472    0.11246
     0.78044    0.11357
     0.79616    0.11479
     0.81187    0.11614
     0.82759    0.11767
     0.84330    0.11943
     0.85902    0.12149
     0.87472    0.12393
     0.89042    0.12686
     0.90611    0.13045
     0.92175    0.13488
     0.93730    0.14036
     0.95259    0.14692
     0.96727    0.15406
     0.98067    0.16028
     0.99203    0.16436
     1.00000    0.16639
