; Filename: jilin
; WNTR: 1.1.0
; Created: 2024-06-18 10:41:22
[TITLE]

[JUNCTIONS]
;ID                      Elevation       Demand Pattern                 
 1                                 25            1200                            ;
 2                                 25            2640                            ;
 3                                 25            1020                            ;
 4                                 25            1740                            ;
 5                                 25            1920                            ;
 6                                 25             420                            ;
 7                                 25            1680                            ;
 8                                 25            2640                            ;
 9                                 25            3000                            ;
 10                                25             540                            ;
 11                                25             720                            ;
 12                                25            1740                            ;
 13                                25            1200                            ;
 14                                25            2220                            ;
 15                                25            1500                            ;
 16                                25            1440                            ;
 17                                25             720                            ;
 18                                25            1200                            ;
 19                                25             780                            ;
 20                                25              60                            ;
 21                                25             360                            ;
 22                                25             480                            ;
 23                                25            1380                            ;
 24                                25            2460                            ;
 25                                25            1020                            ;
 26                                25             300                            ;
 27                                25             300                            ;

[RESERVOIRS]
;ID                                   Head                  Pattern
 28                                60                            ;

[TANKS]
;ID                              Elevation           Init Level            Min Level            Max Level             Diameter           Min Volume Volume Curve         Overflow            

[PIPES]
;ID                   Node1                Node2                              Length             Diameter            Roughness           Minor Loss               Status
 1                    3                    2                                478             150             130               0                 Open   ;
 2                    3                    1                                830             150             130               0                 Open   ;
 3                    4                    3                               1030             250             130               0                 Open   ;
 4                    25                   11                               679             150             130               0                 Open   ;
 5                    6                    17                               830             150             130               0                 Open   ;
 6                    26                   6                                508             200             130               0                 Open   ;
 7                    26                   4                               1416             300             130               0                 Open   ;
 8                    2                    8                                593             150             130               0                 Open   ;
 9                    3                    9                                553             150             130               0                 Open   ;
 10                   8                    7                                505             150             130               0                 Open   ;
 11                   9                    8                                454             150             130               0                 Open   ;
 12                   17                   11                              1095             150             130               0                 Open   ;
 13                   9                    10                               392             150             130               0                 Open   ;
 14                   12                   10                              1124             150             130               0                 Open   ;
 15                   15                   16                              1025             200             130               0                 Open   ;
 16                   12                   15                              1125             450             130               0                 Open   ;
 17                   14                   15                              1003             150             130               0                 Open   ;
 18                   13                   14                               954             200             130               0                 Open   ;
 19                   13                   12                              1200             500             130               0                 Open   ;
 20                   26                   13                               435             400             130               0                 Open   ;
 21                   20                   19                               543             300             130               0                 Open   ;
 22                   27                   20                               740             250             130               0                 Open   ;
 23                   21                   20                               988             400             130               0                 Open   ;
 24                   15                   21                              1859             400             130               0                 Open   ;
 25                   22                   21                               405             150             130               0                 Open   ;
 26                   19                   18                               467             300             130               0                 Open   ;
 27                   6                    23                               543             150             130               0                 Open   ;
 28                   23                   24                               721             150             130               0                 Open   ;
 29                   24                   25                               882             150             130               0                 Open   ;
 30                   6                    25                               966             150             130               0                 Open   ;
 31                   25                   5                                635             150             130               0                 Open   ;
 32                   26                   28                              2013             700             130               0                 Open   ;
 33                   22                   14                              1000             150             130               0                 Open   ;
 34                   27                   16                              1000             150             130               0                 Open   ;

[PUMPS]
;ID                   Node1                Node2                Properties          

[VALVES]
;ID                   Node1                Node2                            Diameter Type              Setting           Minor Loss

[TAGS]
;type      name       tag       

[DEMANDS]
;ID        Demand     Pattern   

[STATUS]
;ID        Setting   

[PATTERNS]
;ID        Multipliers

[CURVES]
;ID         X-Value      Y-Value     

[CONTROLS]

[RULES]

[ENERGY]
GLOBAL PRICE           0.0000

[EMITTERS]
;ID        Flow coefficient

[QUALITY]

[SOURCES]
;Node      Type       Quality    Pattern   

[REACTIONS]
;Type           Pipe/Tank               Coefficient

 ORDER BULK 1
 ORDER TANK 1
 ORDER WALL 1
 GLOBAL BULK 0.0000    
 GLOBAL WALL 0.0000    

[MIXING]
;Tank ID             Model Fraction

[TIMES]
DURATION             00:00:00
HYDRAULIC TIMESTEP   01:00:00
QUALITY TIMESTEP     00:06:00
PATTERN TIMESTEP     01:00:00
PATTERN START        00:00:00
REPORT TIMESTEP      01:00:00
REPORT START         00:00:00
START CLOCKTIME      00:00:00 AM
RULE TIMESTEP        00:06:00
STATISTIC            NONE      

[REPORT]

[OPTIONS]
UNITS                LPM                 
HEADLOSS             H-W                 
SPECIFIC GRAVITY     1
VISCOSITY            1
TRIALS               200
ACCURACY             0.001
CHECKFREQ            2
MAXCHECK             10
UNBALANCED           STOP                
PATTERN              1                   
DEMAND MULTIPLIER    1
EMITTER EXPONENT     0.5
QUALITY              NONE                
DIFFUSIVITY          1
TOLERANCE            0.01

[COORDINATES]
;Node      X-Coord    Y-Coord   
1                 332.110000000        317.580000000
2                 291.570000000        292.630000000
3                 290.220000000        316.730000000
4                 290.060000000        368.750000000
5                 346.870000000        502.890000000
6                 295.890000000        442.300000000
7                 259.770000000        266.660000000
8                 261.600000000        292.090000000
9                 262.360000000        315.020000000
10                242.590000000        313.780000000
11                354.560000000        454.970000000
12                249.720000000        368.970000000
13                250.020000000        429.560000000
14                203.540000000        435.760000000
15                196.240000000        386.700000000
16                187.690000000        336.720000000
17                322.450000000        410.330000000
18                 59.450000000        322.650000000
19                 82.540000000        319.910000000
20                 88.540000000        346.640000000
21                105.550000000        393.560000000
22                115.690000000        411.300000000
23                281.160000000        465.160000000
24                289.690000000        499.270000000
25                328.150000000        476.820000000
26                270.870000000        436.510000000
27                124.220000000        337.660000000
28                211.020000000        530.700000000

[VERTICES]
;Link      X-Coord    Y-Coord   

[LABELS]

[BACKDROP]
UNITS    NONE

[END]
