31.37952 76.13887 -76.94516 85.99764 -58.09992 -71.41518 90.22034 96.97785 -48.74746 -97.86251 23.66774 -56.96661 6.12198 78.77442 -22.63545 36.17644 -95.62916 31.32743 -50.10974 50.56525 96.97993 10.84791 33.86821 -15.24595 28.16898 -36.83680 81.92123 -49.86376 92.46783 -90.34459 8.46236 0.61330 -18.84175 34.00107 27.96168 -82.71407 7.59483 80.49380 33.70239 -34.23337 23.60465 -66.22844 -5.67638 16.73075 -89.52430 25.12380 -52.11807 -29.26937 64.27741 82.54266
23.40442 -11.83446 20.70430 21.29531 -97.08102 -17.86656 -93.49321 -79.57070 -65.65926 -80.96164 46.55339 -39.19167 99.35705 94.27635 -54.11789 90.10014 -31.31400 -64.19764 32.08830 17.02852 78.14554 6.35063 89.76973 53.65712 -51.15292 -12.40449 -20.59745 -65.41046 -45.05072 76.57346 25.57023 -30.08474 60.78457 -51.52355 7.91130 -25.44876 59.13675 40.82288 -98.03720 59.88797 -60.24777 -8.72579 27.13978 21.17988 11.48870 -76.65998 -59.82437 -95.56209 63.24440 90.44585
89.37725 -26.64560 35.84509 -30.02560 -88.30345 -38.49940 71.65742 80.34804 51.21700 -0.30913 -42.09622 84.85177 65.35804 -27.39214 -18.56286 -14.58141 -90.51643 -71.04095 46.85575 -60.79330 -15.36844 77.48527 -77.64146 -88.48489 23.69023 -87.28068 -44.67763 3.64973 -48.18526 76.27583 -16.43510 -80.64780 -78.23741 -39.25704 -17.98421 -8.04168 44.94492 79.49110 2.16551 3.47643 1.07201 6.75659 -49.44012 -28.21526 90.96594 -36.89093 -92.37836 -20.45515 -25.39047 -21.10952
-50.88543 -90.23578 -47.20246 -64.58537 -46.20020 12.51386 -89.62735 91.59850 -36.07338 -84.74499 38.39496 -41.75437 -41.20739 -33.40216 -68.54314 -70.48992 45.07099 66.04909 -37.85292 7.55696 -16.99578 50.34374 -29.78359 -62.19061 72.63682 55.20950 10.43662 -35.17480 82.48073 18.08640 -80.49415 0.17651 85.05138 13.36470 14.24930 -93.93806 23.89207 51.35143 1.04584 -18.77890 57.13761 -74.07311 -28.87035 16.12947 51.32073 27.49363 -77.42039 52.76255 -43.42631 -48.17822
42.23260 0.28949 87.00523 -98.56723 -38.99265 79.38582 78.10129 -11.62125 -37.85141 -96.49212 81.94055 11.55686 -12.41382 54.10401 -46.29525 -14.96350 52.58354 -70.70119 35.69963 97.93257 -42.45685 68.46333 -31.85586 88.53982 21.49006 34.55759 -28.43831 95.58392 -97.24231 -93.66392 -81.83584 -11.58409 72.72620 35.06161 49.69216 76.93243 -73.91741 80.77106 -77.96808 -60.17690 -33.31228 53.39476 82.37489 -83.25446 -82.57444 64.54979 -92.60169 72.58001 -94.43614 59.92662
-91.84591 -40.80547 33.00741 -7.01572 11.17978 -60.13225 65.89148 -30.00841 20.84236 97.94006 -84.96794 -18.47099 1.94845 -25.58697 21.91000 56.84571 -93.99478 -65.42928 -10.47637 77.75085 -6.55802 -52.94155 -85.69356 22.56176 -38.01970 47.63404 8.56872 -90.39835 -62.27103 42.22113 -32.22872 -27.83686 -28.61118 60.65845 -14.74265 1.22112 88.87521 -14.89305 57.74720 34.53940 -69.50113 52.54220 -63.15466 -85.67817 -65.54445 31.12394 -36.45013 -65.95943 70.48297 -54.78709
-78.62237 -69.84009 27.07103 43.50013 -54.62135 -69.65437 83.49708 13.74465 48.41342 37.70540 -61.16814 83.59294 -41.54417 26.87321 49.80212 -86.19457 -71.41436 19.21795 78.92153 -29.37014 -1.42994 -2.23201 45.75292 20.93776 -13.29011 48.34875 -97.80466 85.60747 -61.42946 -98.45138 7.40494 21.26992 50.47983 15.85617 95.62998 -92.71495 -43.83827 -16.84099 -14.31445 -49.76795 3.91630 -81.49012 5.84351 35.34547 -23.64913 51.79682 -46.89920 9.83743 41.44940 -75.93625
-8.32445 -42.27630 4.25149 -94.55987 46.17444 96.61705 8.87619 85.76293 -30.72641 -46.01603 82.21409 -8.19335 -42.91562 28.80014 -1.85914 92.62226 68.08013 22.82270 -74.17184 55.69332 -53.35311 -15.75938 28.94655 7.83450 39.05490 37.83485 -45.85118 -99.73198 94.85793 -47.15737 -55.55135 -79.86620 -17.01422 87.53760 48.84743 -8.48471 -22.51365 -2.24454 -90.81767 71.36198 -6.90913 -29.87734 -22.97174 -21.89843 51.54541 -1.78289 52.33361 -29.35984 -45.74266 -5.88421
80.08508 -47.53672 21.13856 -14.53973 -89.83015 33.11614 0.72050 -52.32097 -69.61586 32.91155 -55.53556 -62.12406 73.97588 7.87149 54.32917 31.44696 97.80866 66.91714 45.47748 74.73200 -39.12767 -12.85076 -97.95672 79.26926 -35.52407 -17.05089 93.05086 -51.96753 -43.81055 -15.18003 88.06693 -11.53291 13.78432 28.09861 -51.85013 -98.20353 -62.74397 0.71926 13.73236 -49.29551 -32.49899 -62.37828 42.48617 60.96137 -58.18100 -66.82683 -47.65779 -0.31283 28.44367 -43.30239
-80.29030 -14.72873 43.28112 98.53953 62.02335 -71.85151 70.28719 20.47728 -67.07406 92.75236 1.13442 93.35903 94.92751 -12.34730 88.50908 -82.19452 92.72660 9.98094 -88.56766 9.94703 68.86320 -15.47182 -75.22370 24.66636 -99.09798 89.18992 -65.57413 -2.96918 -88.87384 8.41081 -16.92367 32.71477 -66.17828 18.29151 -81.24939 -54.36176 -66.44552 23.25837 47.54638 63.26187 40.57474 31.25085 20.84002 58.23819 33.27014 -5.00829 88.96222 -63.13953 -30.60902 -22.26718
