; Filename: /home/stefan/git/indago/indago/benchmarks/hydraulic_network_data/hn_31-1-5.1.net
; WNTR: 0.5.0
; Created: 2023-10-21 11:07:54
[TITLE]

[JUNCTIONS]
;ID                      Elevation       Demand Pattern                 
 0,0                                0               0                            ;
 0,1                                0            1200                            ;
 0,2                                0               0                            ;
 0,3                                0            1200                            ;
 1,0                                0            1200                            ;
 1,1                                0               0                            ;
 1,2                                0               0                            ;
 1,3                                0               0                            ;
 2,0                                0               0                            ;
 2,1                                0            1200                            ;
 2,3                                0               0                            ;
 3,0                                0               0                            ;
 3,1                                0               0                            ;
 3,2                                0               0                            ;
 3,3                                0               0                            ;
 4,0                                0               0                            ;
 4,1                                0            1200                            ;
 4,2                                0               0                            ;
 4,3                                0               0                            ;

[RESERVOIRS]
;ID                                   Head                  Pattern
 2,2                               30                            ;

[TANKS]
;ID                              Elevation           Init Level            Min Level            Max Level             Diameter           Min Volume Volume Curve         Overflow            

[PIPES]
;ID                   Node1                Node2                              Length             Diameter            Roughness           Minor Loss               Status
 0                    0,0                  0,1                     460.33683285     108.9831581             130               0                 Open   ;
 1                    0,1                  0,2                     619.22643938    365.78866772             130               0                 Open   ;
 2                    0,2                  0,3                      358.8517188     313.6835875             130               0                 Open   ;
 3                    0,0                  1,0                     384.04156717    30.494223141             130               0                 Open   ;
 4                    0,1                  1,1                     596.53711386    211.89222063             130               0                 Open   ;
 5                    1,0                  1,1                     522.94526078    344.87049636             130               0                 Open   ;
 6                    0,2                  1,2                     507.01176888     122.0366152             130               0                 Open   ;
 7                    1,1                  1,2                     594.33887867    46.822230853             130               0                 Open   ;
 8                    0,3                  1,3                     365.71934135    222.77116252             130               0                 Open   ;
 9                    1,2                  1,3                     521.68781913    74.933554573             130               0                 Open   ;
 10                   1,0                  2,0                     509.69955399    102.01802121             130               0                 Open   ;
 11                   1,1                  2,1                     349.16584018    188.92107333             130               0                 Open   ;
 12                   2,0                  2,1                     526.35584265    294.31516411             130               0                 Open   ;
 13                   1,2                  2,2                     614.26386058    245.25197614             130               0                 Open   ;
 14                   2,1                  2,2                     575.71784137    231.52016175             130               0                 Open   ;
 15                   1,3                  2,3                     634.42550001    163.48578499             130               0                 Open   ;
 16                   2,2                  2,3                     334.99854733    123.14050945             130               0                 Open   ;
 17                   2,0                  3,0                     663.49560703    116.83416132             130               0                 Open   ;
 18                   2,1                  3,1                     626.11021429    192.50168513             130               0                 Open   ;
 19                   3,0                  3,1                     421.03235314    349.31283309             130               0                 Open   ;
 20                   2,2                  3,2                     492.47969593    178.22919133             130               0                 Open   ;
 21                   3,1                  3,2                     422.73458277    374.28455023             130               0                 Open   ;
 22                   2,3                  3,3                     419.50812971    33.375115873             130               0                 Open   ;
 23                   3,2                  3,3                     526.35140646    211.99554741             130               0                 Open   ;
 24                   3,0                  4,0                     372.16496039     39.57948873             130               0                 Open   ;
 25                   3,1                  4,1                      482.1669928    172.07105911             130               0                 Open   ;
 26                   4,0                  4,1                     503.82179279    55.201756102             130               0                 Open   ;
 27                   3,2                  4,2                     414.02077348    392.09984458             130               0                 Open   ;
 28                   4,1                  4,2                     478.95042848    264.52772538             130               0                 Open   ;
 29                   3,3                  4,3                     476.22158373     88.01307375             130               0                 Open   ;
 30                   4,2                  4,3                     455.58247766    281.48750208             130               0                 Open   ;

[PUMPS]
;ID                   Node1                Node2                Properties          

[VALVES]
;ID                   Node1                Node2                            Diameter Type              Setting           Minor Loss

[TAGS]
;type      name       tag       

[DEMANDS]
;ID        Demand     Pattern   

[STATUS]
;ID        Setting   

[PATTERNS]
;ID        Multipliers

[CURVES]
;ID         X-Value      Y-Value     

[CONTROLS]

[RULES]

[ENERGY]
GLOBAL PRICE           0.0000

[EMITTERS]
;ID        Flow coefficient

[QUALITY]

[SOURCES]
;Node      Type       Quality    Pattern   

[REACTIONS]
;Type           Pipe/Tank               Coefficient

 ORDER BULK 1
 ORDER TANK 1
 ORDER WALL 1
 GLOBAL BULK 0.0000    
 GLOBAL WALL 0.0000    

[MIXING]
;Tank ID             Model Fraction

[TIMES]
DURATION             00:00:00
HYDRAULIC TIMESTEP   01:00:00
QUALITY TIMESTEP     00:06:00
PATTERN TIMESTEP     01:00:00
PATTERN START        00:00:00
REPORT TIMESTEP      01:00:00
REPORT START         00:00:00
START CLOCKTIME      00:00:00 AM
RULE TIMESTEP        00:06:00
STATISTIC            NONE      

[REPORT]

[OPTIONS]
UNITS                LPM                 
HEADLOSS             H-W                 
SPECIFIC GRAVITY     1
VISCOSITY            1
TRIALS               200
ACCURACY             0.001
CHECKFREQ            2
MAXCHECK             10
UNBALANCED           STOP                
DEMAND MULTIPLIER    1
EMITTER EXPONENT     0.5
QUALITY              NONE                
DIFFUSIVITY          1
TOLERANCE            0.01

[COORDINATES]
;Node      X-Coord    Y-Coord   
0,0                39.472554602        -12.604511422
0,1                 2.587601751        446.252219960
0,2               -37.263622628       1064.194986843
0,3                80.278621067       1403.250110731
1,0               422.142009489        -45.039270715
1,1               599.124185950        447.047159691
1,2               468.369032886       1026.824524414
1,3               416.997654788       1545.976874061
2,0               929.212223553          6.665983780
2,1               937.556616597        532.955679858
2,3              1039.505960430       1423.587640587
3,0              1589.606371494         70.743982447
3,1              1562.251909237        490.886786486
3,2              1538.459575727        912.951298537
3,3              1458.902673144       1433.255538698
4,0              1954.895532271         -0.464070198
4,1              2044.398299972        495.344011085
4,2              1949.228051198        964.743773218
4,3              1934.942573926       1420.102224429
2,2              1079.275712729       1090.958126686

[VERTICES]
;Link      X-Coord    Y-Coord   

[LABELS]

[BACKDROP]
UNITS    NONE

[END]
